build/tb_format_verify_simple.vcd
$date
	Fri Mar 13 01:13:12 2026
$end
$version
	Icarus Verilog
$end
$timescale
	1ps
$end
$scope module tb_format_verify_simple $end
$var wire 1 ! ram_wr_en $end
$var wire 8 " ram_wr_data [7:0] $end
$var wire 1 # ram_rd_en $end
$var wire 8 $ ram_dout [7:0] $end
$var wire 12 % ram_addr_a [11:0] $end
$var wire 16 & fmt_result_len [15:0] $end
$var wire 1 ' fmt_done $end
$var parameter 32 ( CLK_PERIOD $end
$var reg 1 ) clk $end
$var reg 16 * fmt_data_len [15:0] $end
$var reg 1 + fmt_start $end
$var reg 12 , ram_addr [11:0] $end
$var reg 8 - ram_din [7:0] $end
$var reg 1 . ram_we $end
$var reg 1 / rst_n $end
$var reg 1 0 sel_formatter $end
$var integer 32 1 i [31:0] $end
$scope module u_formatter $end
$var wire 1 ) clk $end
$var wire 16 2 data_len [15:0] $end
$var wire 1 3 decrease_indent $end
$var wire 1 4 increase_indent $end
$var wire 1 5 is_always_keyword $end
$var wire 1 6 is_begin_keyword $end
$var wire 1 7 is_case_keyword $end
$var wire 1 8 is_else_keyword $end
$var wire 1 9 is_end_keyword $end
$var wire 1 : is_endcase_keyword $end
$var wire 1 ; is_endfunction_keyword $end
$var wire 1 < is_endgenerate_keyword $end
$var wire 1 = is_endmodule_keyword $end
$var wire 1 > is_endtask_keyword $end
$var wire 1 ? is_fork_keyword $end
$var wire 1 @ is_function_keyword $end
$var wire 1 A is_generate_keyword $end
$var wire 1 B is_join_keyword $end
$var wire 1 C is_module_keyword $end
$var wire 1 D is_task_keyword $end
$var wire 1 / rst_n $end
$var wire 1 + start $end
$var wire 8 E src_rd_data [7:0] $end
$var parameter 32 F DATA_DEPTH $end
$var parameter 4 G FINISH $end
$var parameter 4 H IDLE $end
$var parameter 32 I INDENT_SIZE $end
$var parameter 32 J MAX_LINE_LEN $end
$var parameter 4 K PROCESS_LINE $end
$var parameter 4 L READ_CHAR $end
$var parameter 4 M WAIT_READ $end
$var parameter 4 N WAIT_READ2 $end
$var parameter 4 O WRITE_CONTENT $end
$var parameter 4 P WRITE_INDENT $end
$var parameter 4 Q WRITE_NEWLINE $end
$var reg 16 R bytes_remaining [15:0] $end
$var reg 9 S content_start [8:0] $end
$var reg 8 T curr_char [7:0] $end
$var reg 1 U decrease_indent_now $end
$var reg 1 ' done $end
$var reg 16 V dst_ptr [15:0] $end
$var reg 12 W dst_wr_addr [11:0] $end
$var reg 8 X dst_wr_data [7:0] $end
$var reg 1 Y dst_wr_en $end
$var reg 5 Z first_token_len [4:0] $end
$var reg 1 [ increase_indent_next $end
$var reg 8 \ indent_level [7:0] $end
$var reg 8 ] indent_to_write [7:0] $end
$var reg 1 ^ is_comment_line $end
$var reg 1 _ is_empty_line $end
$var reg 9 ` line_len [8:0] $end
$var reg 16 a result_len [15:0] $end
$var reg 16 b src_ptr [15:0] $end
$var reg 12 c src_rd_addr [11:0] $end
$var reg 1 d src_rd_en $end
$var reg 4 e state [3:0] $end
$var reg 9 f write_idx [8:0] $end
$var integer 32 g i [31:0] $end
$upscope $end
$scope module u_ram $end
$var wire 12 h addr_a [11:0] $end
$var wire 12 i addr_b [11:0] $end
$var wire 1 ) clk $end
$var wire 8 j din_a [7:0] $end
$var wire 8 k din_b [7:0] $end
$var wire 1 / rst_n $end
$var wire 1 ! we_a $end
$var wire 1 l we_b $end
$var parameter 32 m ADDR_WIDTH $end
$var parameter 32 n DATA_WIDTH $end
$var parameter 32 o DEPTH $end
$var reg 8 p dout_a [7:0] $end
$var reg 8 q dout_b [7:0] $end
$upscope $end
$upscope $end
$enddefinitions $end
$comment Show the parameter values. $end
$dumpall
b1000000000000 o
b1000 n
b1100 m
b111 Q
b101 P
b110 O
b11 N
b10 M
b1 L
b100 K
b100000000 J
b100 I
b0 H
b1000 G
b1000000000000 F
b1010 (
$end
#0
$dumpvars
bx q
bx p
0l
b0 k
b0 j
b0 i
b0 h
b10000 g
b0 f
b0 e
0d
b0 c
b0 b
b0 a
b0 `
0_
0^
b0 ]
b0 \
0[
b0 Z
0Y
b0 X
b0 W
b0 V
0U
b0 T
b0 S
b0 R
bx E
0D
0C
0B
0A
0@
0?
0>
0=
0<
0;
0:
09
08
07
06
05
04
03
b0 2
bx 1
00
0/
0.
b0 -
b0 ,
0+
b0 *
0)
0'
b0 &
b0 %
bx $
0#
b0 "
0!
$end
#5000
b10000 g
1)
#10000
0)
#15000
b10000 g
1)
#20000
0)
#25000
b10000 g
1)
#30000
0)
#35000
b10000 g
1)
#40000
0)
#45000
b10000 g
1)
#50000
0)
#55000
b10000 g
1)
#60000
0)
#65000
b10000 g
1)
#70000
0)
#75000
b10000 g
1)
#80000
0)
#85000
b10000 g
1)
#90000
0)
#95000
b10000 g
1)
#100000
1/
0)
#105000
1)
#110000
0)
#115000
1)
#120000
0)
#125000
1)
#130000
0)
#135000
1)
#140000
0)
#145000
1)
#150000
0)
#155000
1)
#160000
0)
#165000
1)
#170000
0)
#175000
1)
#180000
0)
#185000
1)
#190000
0)
#195000
1)
#200000
0)
b0 1
#205000
b1101101 "
b1101101 j
1!
b1101101 -
1.
b1 1
1)
#210000
0)
#215000
b1101111 "
b1101111 j
b1 %
b1 h
b1101111 -
b1 ,
b10 1
1)
#220000
0)
#225000
b1100100 "
b1100100 j
b10 %
b10 h
b1101101 q
b1100100 -
b10 ,
b11 1
1)
#230000
0)
#235000
b1110101 "
b1110101 j
b11 %
b11 h
b1110101 -
b11 ,
b100 1
1)
#240000
0)
#245000
b1101100 "
b1101100 j
b100 %
b100 h
b1101100 -
b100 ,
b101 1
1)
#250000
0)
#255000
b1100101 "
b1100101 j
b101 %
b101 h
b1100101 -
b101 ,
b110 1
1)
#260000
0)
#265000
b100000 "
b100000 j
b110 %
b110 h
b100000 -
b110 ,
b111 1
1)
#270000
0)
#275000
b1110100 "
b1110100 j
b111 %
b111 h
b1110100 -
b111 ,
b1000 1
1)
#280000
0)
#285000
b1100101 "
b1100101 j
b1000 %
b1000 h
b1100101 -
b1000 ,
b1001 1
1)
#290000
0)
#295000
b1110011 "
b1110011 j
b1001 %
b1001 h
b1110011 -
b1001 ,
b1010 1
1)
#300000
0)
#305000
b1110100 "
b1110100 j
b1010 %
b1010 h
b1110100 -
b1010 ,
b1011 1
1)
#310000
0)
#315000
b111011 "
b111011 j
b1011 %
b1011 h
b111011 -
b1011 ,
b1100 1
1)
#320000
0)
#325000
b1010 "
b1010 j
b1100 %
b1100 h
b1010 -
b1100 ,
b1101 1
1)
#330000
0)
#335000
b0 %
b0 h
b0 "
b0 j
0!
10
0.
1)
#340000
0)
#345000
b1101101 $
b1101101 E
b1101101 p
1+
b1101 *
b1101 2
1)
#350000
0)
#355000
b1101 R
b1 e
0+
b10000 g
1)
#360000
0)
#365000
1#
b10 e
1d
1)
#370000
0)
#375000
b11 e
1d
1)
#380000
0)
#385000
b1 e
b1 Z
b1 `
b1100 R
b1 b
b1101101 T
1d
1)
#390000
0)
#395000
b1 %
b1 h
b10 e
b1 c
1d
1)
#400000
0)
#405000
b11 e
1d
b1101111 $
b1101111 E
b1101111 p
1)
#410000
0)
#415000
b1 e
b10 Z
b10 `
b1011 R
b10 b
b1101111 T
1d
1)
#420000
0)
#425000
b10 %
b10 h
b10 e
b10 c
1d
1)
#430000
0)
#435000
b11 e
1d
b1100100 $
b1100100 E
b1100100 p
1)
#440000
0)
#445000
b1 e
b11 Z
b11 `
b1010 R
b11 b
b1100100 T
1d
1)
#450000
0)
#455000
b11 %
b11 h
b10 e
b11 c
1d
1)
#460000
0)
#465000
b11 e
1d
b1110101 $
b1110101 E
b1110101 p
1)
#470000
0)
#475000
b1 e
b100 Z
b100 `
b1001 R
b100 b
b1110101 T
1d
1)
#480000
0)
#485000
b100 %
b100 h
b10 e
b100 c
1d
1)
#490000
0)
#495000
b11 e
1d
b1101100 $
b1101100 E
b1101100 p
1)
#500000
0)
#505000
b1 e
b101 Z
b101 `
b1000 R
b101 b
b1101100 T
1d
1)
#510000
0)
#515000
b101 %
b101 h
b10 e
b101 c
1d
1)
#520000
0)
#525000
b11 e
1d
b1100101 $
b1100101 E
b1100101 p
1)
#530000
0)
#535000
14
1C
b1 e
b110 Z
b110 `
b111 R
b110 b
b1100101 T
1d
1)
#540000
0)
#545000
b110 %
b110 h
b10 e
b110 c
1d
1)
#550000
0)
#555000
b11 e
1d
b100000 $
b100000 E
b100000 p
1)
#560000
0)
#565000
b1 e
b111 `
b110 R
b111 b
b100000 T
1d
1)
#570000
0)
#575000
b111 %
b111 h
b10 e
b111 c
1d
1)
#580000
0)
#585000
b11 e
1d
b1110100 $
b1110100 E
b1110100 p
1)
#590000
0)
#595000
04
0C
b1 e
b111 Z
b1000 `
b101 R
b1000 b
b1110100 T
1d
1)
#600000
0)
#605000
b1000 %
b1000 h
b10 e
b1000 c
1d
1)
#610000
0)
#615000
b11 e
1d
b1100101 $
b1100101 E
b1100101 p
1)
#620000
0)
#625000
b1 e
b1000 Z
b1001 `
b100 R
b1001 b
b1100101 T
1d
1)
#630000
0)
#635000
b1001 %
b1001 h
b10 e
b1001 c
1d
1)
#640000
0)
#645000
b11 e
1d
b1110011 $
b1110011 E
b1110011 p
1)
#650000
0)
#655000
b1 e
b1001 Z
b1010 `
b11 R
b1010 b
b1110011 T
1d
1)
#660000
0)
#665000
b1010 %
b1010 h
b10 e
b1010 c
1d
1)
#670000
0)
#675000
b11 e
1d
b1110100 $
b1110100 E
b1110100 p
1)
#680000
0)
#685000
b1 e
b1010 Z
b1011 `
b10 R
b1011 b
b1110100 T
1d
1)
#690000
0)
#695000
b1011 %
b1011 h
b10 e
b1011 c
1d
1)
#700000
0)
#705000
b11 e
1d
b111011 $
b111011 E
b111011 p
1)
#710000
0)
#715000
b1 e
b1100 `
b1 R
b1100 b
b111011 T
1d
1)
#720000
0)
#725000
b1100 %
b1100 h
b10 e
b1100 c
1d
1)
#730000
0)
#735000
b11 e
1d
b1010 $
b1010 E
b1010 p
1)
#740000
0)
#745000
b100 e
b0 R
b1101 b
b1010 T
1d
1)
#750000
0)
#755000
b0 %
b0 h
0#
b101 e
0d
1)
#760000
0)
#765000
b110 e
b1101101 $
b1101101 E
b1101101 p
1)
#770000
0)
#775000
b1101101 "
b1101101 j
1!
b1 f
b1 V
b1101101 X
1Y
1)
#780000
0)
#785000
b1 %
b1 h
b1101111 "
b1101111 j
b10 f
b10 V
b1101111 X
b1 W
1Y
1)
#790000
0)
#795000
b10 %
b10 h
b1100100 "
b1100100 j
b11 f
b11 V
b1100100 X
b10 W
1Y
b1101111 $
b1101111 E
b1101111 p
1)
#800000
0)
#805000
b11 %
b11 h
b1110101 "
b1110101 j
b100 f
b100 V
b1110101 X
b11 W
1Y
b1100100 $
b1100100 E
b1100100 p
1)
#810000
0)
#815000
b100 %
b100 h
b1101100 "
b1101100 j
b101 f
b101 V
b1101100 X
b100 W
1Y
b1110101 $
b1110101 E
b1110101 p
1)
#820000
0)
#825000
b101 %
b101 h
b1100101 "
b1100101 j
b110 f
b110 V
b1100101 X
b101 W
1Y
b1101100 $
b1101100 E
b1101100 p
1)
#830000
0)
#835000
b110 %
b110 h
b100000 "
b100000 j
b111 f
b111 V
b100000 X
b110 W
1Y
b1100101 $
b1100101 E
b1100101 p
1)
#840000
0)
#845000
b111 %
b111 h
b1110100 "
b1110100 j
b1000 f
b1000 V
b1110100 X
b111 W
1Y
b100000 $
b100000 E
b100000 p
1)
#850000
0)
#855000
b1000 %
b1000 h
b1100101 "
b1100101 j
b1001 f
b1001 V
b1100101 X
b1000 W
1Y
b1110100 $
b1110100 E
b1110100 p
1)
#860000
0)
#865000
b1001 %
b1001 h
b1110011 "
b1110011 j
b1010 f
b1010 V
b1110011 X
b1001 W
1Y
b1100101 $
b1100101 E
b1100101 p
1)
#870000
0)
#875000
b1010 %
b1010 h
b1110100 "
b1110100 j
b1011 f
b1011 V
b1110100 X
b1010 W
1Y
b1110011 $
b1110011 E
b1110011 p
1)
#880000
0)
#885000
b1011 %
b1011 h
b111011 "
b111011 j
b1100 f
b1100 V
b111011 X
b1011 W
1Y
b1110100 $
b1110100 E
b1110100 p
1)
#890000
0)
#895000
0!
b111 e
0Y
b111011 $
b111011 E
b111011 p
1)
#900000
0)
#905000
b1100 %
b1100 h
b1010 "
b1010 j
1!
b1000 e
b0 Z
b0 `
b1101 V
b1010 X
b1100 W
1Y
b10000 g
1)
#910000
0)
#915000
0!
b0 e
b1101 &
b1101 a
1'
0Y
b1010 $
b1010 E
b1010 p
1)
#920000
0)
#925000
0'
00
1)
#930000
0)
#935000
1)
#940000
0)
#945000
1)
#950000
0)
#955000
1)
#960000
0)
#965000
1)
#970000
0)
#975000
b0 %
b0 h
b0 ,
1)
b0 1
#980000
0)
#985000
b1101101 $
b1101101 E
b1101101 p
b1 1
1)
#990000
0)
#995000
b1 %
b1 h
b1 ,
1)
#1000000
0)
#1005000
b1101111 $
b1101111 E
b1101111 p
b10 1
1)
#1010000
0)
#1015000
b10 %
b10 h
b10 ,
1)
#1020000
0)
#1025000
b1100100 $
b1100100 E
b1100100 p
b11 1
1)
#1030000
0)
#1035000
b11 %
b11 h
b11 ,
1)
#1040000
0)
#1045000
b1110101 $
b1110101 E
b1110101 p
b100 1
1)
#1050000
0)
#1055000
b100 %
b100 h
b100 ,
1)
#1060000
0)
#1065000
b1101100 $
b1101100 E
b1101100 p
b101 1
1)
#1070000
0)
#1075000
b101 %
b101 h
b101 ,
1)
#1080000
0)
#1085000
b1100101 $
b1100101 E
b1100101 p
b110 1
1)
#1090000
0)
#1095000
b110 %
b110 h
b110 ,
1)
#1100000
0)
#1105000
b100000 $
b100000 E
b100000 p
b111 1
1)
#1110000
0)
#1115000
b111 %
b111 h
b111 ,
1)
#1120000
0)
#1125000
b1110100 $
b1110100 E
b1110100 p
b1000 1
1)
#1130000
0)
#1135000
b1000 %
b1000 h
b1000 ,
1)
#1140000
0)
#1145000
b1100101 $
b1100101 E
b1100101 p
b1001 1
1)
#1150000
0)
#1155000
b1001 %
b1001 h
b1001 ,
1)
#1160000
0)
#1165000
b1110011 $
b1110011 E
b1110011 p
b1010 1
1)
#1170000
0)
#1175000
b1010 %
b1010 h
b1010 ,
1)
#1180000
0)
#1185000
b1110100 $
b1110100 E
b1110100 p
b1011 1
1)
#1190000
0)
#1195000
b1011 %
b1011 h
b1011 ,
1)
#1200000
0)
#1205000
b111011 $
b111011 E
b111011 p
b1100 1
1)
#1210000
0)
#1215000
b1100 %
b1100 h
b1100 ,
1)
#1220000
0)
#1225000
b1010 $
b1010 E
b1010 p
b1101 1
1)
