build/tb_format_verify_debug.vcd
$date
	Thu Mar 12 18:28:37 2026
$end
$version
	Icarus Verilog
$end
$timescale
	1ps
$end
$scope module tb_format_verify_debug $end
$var wire 1 ! ram_wr_en $end
$var wire 8 " ram_wr_data [7:0] $end
$var wire 12 # ram_wr_addr [11:0] $end
$var wire 1 $ ram_rd_en $end
$var wire 12 % ram_rd_addr [11:0] $end
$var wire 8 & ram_dout [7:0] $end
$var wire 16 ' fmt_result_len [15:0] $end
$var wire 1 ( fmt_done $end
$var parameter 32 ) CLK_PERIOD $end
$var reg 1 * clk $end
$var reg 16 + fmt_data_len [15:0] $end
$var reg 1 , fmt_start $end
$var reg 12 - ram_addr [11:0] $end
$var reg 8 . ram_din [7:0] $end
$var reg 1 / ram_we $end
$var reg 1 0 rst_n $end
$var reg 1 1 sel_formatter $end
$var integer 32 2 i [31:0] $end
$scope module u_formatter $end
$var wire 1 * clk $end
$var wire 16 3 data_len [15:0] $end
$var wire 1 4 decrease_indent $end
$var wire 1 5 increase_indent $end
$var wire 1 6 is_always_keyword $end
$var wire 1 7 is_begin_keyword $end
$var wire 1 8 is_case_keyword $end
$var wire 1 9 is_else_keyword $end
$var wire 1 : is_end_keyword $end
$var wire 1 ; is_endcase_keyword $end
$var wire 1 < is_endfunction_keyword $end
$var wire 1 = is_endgenerate_keyword $end
$var wire 1 > is_endmodule_keyword $end
$var wire 1 ? is_endtask_keyword $end
$var wire 1 @ is_fork_keyword $end
$var wire 1 A is_function_keyword $end
$var wire 1 B is_generate_keyword $end
$var wire 1 C is_join_keyword $end
$var wire 1 D is_module_keyword $end
$var wire 1 E is_task_keyword $end
$var wire 1 0 rst_n $end
$var wire 1 , start $end
$var wire 8 F src_rd_data [7:0] $end
$var parameter 32 G DATA_DEPTH $end
$var parameter 4 H FINISH $end
$var parameter 4 I IDLE $end
$var parameter 32 J INDENT_SIZE $end
$var parameter 32 K MAX_LINE_LEN $end
$var parameter 4 L PROCESS_LINE $end
$var parameter 4 M READ_CHAR $end
$var parameter 4 N WAIT_READ $end
$var parameter 4 O WAIT_READ2 $end
$var parameter 4 P WRITE_CONTENT $end
$var parameter 4 Q WRITE_INDENT $end
$var parameter 4 R WRITE_NEWLINE $end
$var reg 16 S bytes_remaining [15:0] $end
$var reg 9 T content_start [8:0] $end
$var reg 8 U curr_char [7:0] $end
$var reg 1 V decrease_indent_now $end
$var reg 1 ( done $end
$var reg 16 W dst_ptr [15:0] $end
$var reg 12 X dst_wr_addr [11:0] $end
$var reg 8 Y dst_wr_data [7:0] $end
$var reg 1 Z dst_wr_en $end
$var reg 5 [ first_token_len [4:0] $end
$var reg 1 \ increase_indent_next $end
$var reg 8 ] indent_level [7:0] $end
$var reg 8 ^ indent_to_write [7:0] $end
$var reg 1 _ is_comment_line $end
$var reg 1 ` is_empty_line $end
$var reg 9 a line_len [8:0] $end
$var reg 16 b result_len [15:0] $end
$var reg 16 c src_ptr [15:0] $end
$var reg 12 d src_rd_addr [11:0] $end
$var reg 1 e src_rd_en $end
$var reg 4 f state [3:0] $end
$var reg 9 g write_idx [8:0] $end
$var integer 32 h i [31:0] $end
$upscope $end
$scope module u_ram $end
$var wire 12 i addr_a [11:0] $end
$var wire 12 j addr_b [11:0] $end
$var wire 1 * clk $end
$var wire 8 k din_a [7:0] $end
$var wire 8 l din_b [7:0] $end
$var wire 1 0 rst_n $end
$var wire 1 ! we_a $end
$var wire 1 m we_b $end
$var parameter 32 n ADDR_WIDTH $end
$var parameter 32 o DATA_WIDTH $end
$var parameter 32 p DEPTH $end
$var reg 8 q dout_a [7:0] $end
$var reg 8 r dout_b [7:0] $end
$upscope $end
$upscope $end
$enddefinitions $end
$comment Show the parameter values. $end
$dumpall
b1000000000000 p
b1000 o
b1100 n
b111 R
b101 Q
b110 P
b11 O
b10 N
b1 M
b100 L
b100000000 K
b100 J
b0 I
b1000 H
b1000000000000 G
b1010 )
$end
#0
$dumpvars
bx r
bx q
0m
b0 l
b0 k
b0 j
b0 i
b10000 h
b0 g
b0 f
0e
bx d
b0 c
b0 b
b0 a
0`
0_
b0 ^
b0 ]
0\
b0 [
0Z
b0 Y
b0 X
b0 W
0V
b0 U
b0 T
b0 S
bx F
0E
0D
0C
0B
0A
0@
0?
0>
0=
0<
0;
0:
09
08
07
06
05
04
b0 3
bx 2
01
00
0/
b0 .
b0 -
0,
b0 +
0*
0(
b0 '
bx &
b0 %
0$
b0 #
b0 "
0!
$end
#5000
b10000 h
1*
#10000
0*
#15000
b10000 h
1*
#20000
0*
#25000
b10000 h
1*
#30000
0*
#35000
b10000 h
1*
#40000
0*
#45000
b10000 h
1*
#50000
0*
#55000
b10000 h
1*
#60000
0*
#65000
b10000 h
1*
#70000
0*
#75000
b10000 h
1*
#80000
0*
#85000
b10000 h
1*
#90000
0*
#95000
b10000 h
1*
#100000
10
0*
#105000
1*
#110000
0*
#115000
1*
#120000
0*
#125000
1*
#130000
0*
#135000
1*
#140000
0*
#145000
1*
#150000
0*
#155000
1*
#160000
0*
#165000
1*
#170000
0*
#175000
1*
#180000
0*
#185000
1*
#190000
0*
#195000
1*
#200000
0*
b0 2
#205000
b1101101 "
b1101101 k
1!
b1101101 .
1/
b1 2
1*
#210000
0*
#215000
b1101111 "
b1101111 k
b1 #
b1 i
b1 %
b1101111 .
b1 -
b10 2
1*
#220000
0*
#225000
b1100100 "
b1100100 k
b10 #
b10 i
b10 %
b1101101 r
b1100100 .
b10 -
b11 2
1*
#230000
0*
#235000
b1110101 "
b1110101 k
b11 #
b11 i
b11 %
b1110101 .
b11 -
b100 2
1*
#240000
0*
#245000
b1101100 "
b1101100 k
b100 #
b100 i
b100 %
b1101100 .
b100 -
b101 2
1*
#250000
0*
#255000
b1100101 "
b1100101 k
b101 #
b101 i
b101 %
b1100101 .
b101 -
b110 2
1*
#260000
0*
#265000
b100000 "
b100000 k
b110 #
b110 i
b110 %
b100000 .
b110 -
b111 2
1*
#270000
0*
#275000
b1110100 "
b1110100 k
b111 #
b111 i
b111 %
b1110100 .
b111 -
b1000 2
1*
#280000
0*
#285000
b1100101 "
b1100101 k
b1000 #
b1000 i
b1000 %
b1100101 .
b1000 -
b1001 2
1*
#290000
0*
#295000
b1110011 "
b1110011 k
b1001 #
b1001 i
b1001 %
b1110011 .
b1001 -
b1010 2
1*
#300000
0*
#305000
b1110100 "
b1110100 k
b1010 #
b1010 i
b1010 %
b1110100 .
b1010 -
b1011 2
1*
#310000
0*
#315000
b111011 "
b111011 k
b1011 #
b1011 i
b1011 %
b111011 .
b1011 -
b1100 2
1*
#320000
0*
#325000
b1010 "
b1010 k
b1100 #
b1100 i
b1100 %
b1010 .
b1100 -
b1101 2
1*
#330000
0*
#335000
0!
0/
b0 2
1*
#340000
0*
#345000
b0 #
b0 i
b0 %
b1010 &
b1010 F
b1010 q
b0 -
1*
#350000
0*
#355000
b1101101 &
b1101101 F
b1101101 q
b1 2
1*
#360000
0*
#365000
b1 #
b1 i
b1 %
b1 -
1*
#370000
0*
#375000
b1101111 &
b1101111 F
b1101111 q
b10 2
1*
#380000
0*
#385000
b10 #
b10 i
b10 %
b10 -
1*
#390000
0*
#395000
b1100100 &
b1100100 F
b1100100 q
b11 2
1*
#400000
0*
#405000
b11 #
b11 i
b11 %
b11 -
1*
#410000
0*
#415000
b1110101 &
b1110101 F
b1110101 q
b100 2
1*
#420000
0*
#425000
b100 #
b100 i
b100 %
b100 -
1*
#430000
0*
#435000
b1101100 &
b1101100 F
b1101100 q
b101 2
1*
#440000
0*
#445000
b101 #
b101 i
b101 %
b101 -
1*
#450000
0*
#455000
b1100101 &
b1100101 F
b1100101 q
b110 2
1*
#460000
0*
#465000
b110 #
b110 i
b110 %
b110 -
1*
#470000
0*
#475000
b100000 &
b100000 F
b100000 q
b111 2
1*
#480000
0*
#485000
b111 #
b111 i
b111 %
b111 -
1*
#490000
0*
#495000
b1110100 &
b1110100 F
b1110100 q
b1000 2
1*
#500000
0*
#505000
b1000 #
b1000 i
b1000 %
b1000 -
1*
#510000
0*
#515000
b1100101 &
b1100101 F
b1100101 q
b1001 2
1*
#520000
0*
#525000
b1001 #
b1001 i
b1001 %
b1001 -
1*
#530000
0*
#535000
b1110011 &
b1110011 F
b1110011 q
b1010 2
1*
#540000
0*
#545000
b1010 #
b1010 i
b1010 %
b1010 -
1*
#550000
0*
#555000
b1110100 &
b1110100 F
b1110100 q
b1011 2
1*
#560000
0*
#565000
b1011 #
b1011 i
b1011 %
b1011 -
1*
#570000
0*
#575000
b111011 &
b111011 F
b111011 q
b1100 2
1*
#580000
0*
#585000
b1100 #
b1100 i
b1100 %
b1100 -
1*
#590000
0*
#595000
b0 #
b0 i
b0 "
b0 k
bx %
11
b1010 &
b1010 F
b1010 q
b1101 2
1*
#600000
0*
#605000
b1101101 &
b1101101 F
b1101101 q
1,
b1101 +
b1101 3
1*
#610000
0*
#615000
b1101 S
b1 f
0,
b10000 h
1*
#620000
0*
#625000
b0 %
1$
b10 f
b0 d
1e
1*
#630000
0*
#635000
0$
b11 f
0e
1*
#640000
0*
#645000
b1 f
b1 [
b1 a
b1100 S
b1 c
b1101101 U
1*
#650000
0*
#655000
b1 %
1$
b10 f
b1 d
1e
1*
#660000
0*
#665000
0$
b11 f
0e
1*
#670000
0*
#675000
b1 f
b10 [
b10 a
b1011 S
b10 c
1*
#680000
0*
#685000
b10 %
1$
b10 f
b10 d
1e
1*
#690000
0*
#695000
0$
b11 f
0e
1*
#700000
0*
#705000
b1 f
b11 [
b11 a
b1010 S
b11 c
1*
#710000
0*
#715000
b11 %
1$
b10 f
b11 d
1e
1*
#720000
0*
#725000
0$
b11 f
0e
1*
#730000
0*
#735000
b1 f
b100 [
b100 a
b1001 S
b100 c
1*
#740000
0*
#745000
b100 %
1$
b10 f
b100 d
1e
1*
#750000
0*
#755000
0$
b11 f
0e
1*
#760000
0*
#765000
b1 f
b101 [
b101 a
b1000 S
b101 c
1*
#770000
0*
#775000
b101 %
1$
b10 f
b101 d
1e
1*
#780000
0*
#785000
0$
b11 f
0e
1*
#790000
0*
#795000
b1 f
b110 [
b110 a
b111 S
b110 c
1*
#800000
0*
#805000
b110 %
1$
b10 f
b110 d
1e
1*
#810000
0*
#815000
0$
b11 f
0e
1*
#820000
0*
#825000
b1 f
b111 [
b111 a
b110 S
b111 c
1*
#830000
0*
#835000
b111 %
1$
b10 f
b111 d
1e
1*
#840000
0*
#845000
0$
b11 f
0e
1*
#850000
0*
#855000
b1 f
b1000 [
b1000 a
b101 S
b1000 c
1*
#860000
0*
#865000
b1000 %
1$
b10 f
b1000 d
1e
1*
#870000
0*
#875000
0$
b11 f
0e
1*
#880000
0*
#885000
b1 f
b1001 [
b1001 a
b100 S
b1001 c
1*
#890000
0*
#895000
b1001 %
1$
b10 f
b1001 d
1e
1*
#900000
0*
#905000
0$
b11 f
0e
1*
#910000
0*
#915000
b1 f
b1010 [
b1010 a
b11 S
b1010 c
1*
#920000
0*
#925000
b1010 %
1$
b10 f
b1010 d
1e
1*
#930000
0*
#935000
0$
b11 f
0e
1*
#940000
0*
#945000
b1 f
b1011 [
b1011 a
b10 S
b1011 c
1*
#950000
0*
#955000
b1011 %
1$
b10 f
b1011 d
1e
1*
#960000
0*
#965000
0$
b11 f
0e
1*
#970000
0*
#975000
b1 f
b1100 [
b1100 a
b1 S
b1100 c
1*
#980000
0*
#985000
b1100 %
1$
b10 f
b1100 d
1e
1*
#990000
0*
#995000
0$
b11 f
0e
1*
#1000000
0*
#1005000
b1 f
b1101 [
b1101 a
b0 S
b1101 c
1*
#1010000
0*
#1015000
b100 f
1*
#1020000
0*
#1025000
b101 f
1*
#1030000
0*
#1035000
b110 f
1*
#1040000
0*
#1045000
b1101101 "
b1101101 k
1!
b1 g
b1 W
b1101101 Y
1Z
1*
#1050000
0*
#1055000
b1 #
b1 i
b10 g
b10 W
b1 X
1Z
1*
#1060000
0*
#1065000
b10 #
b10 i
b11 g
b11 W
b10 X
1Z
b1101111 &
b1101111 F
b1101111 q
1*
#1070000
0*
#1075000
b11 #
b11 i
b100 g
b100 W
b11 X
1Z
b1100100 &
b1100100 F
b1100100 q
1*
#1080000
0*
#1085000
b100 #
b100 i
b101 g
b101 W
b100 X
1Z
b1110101 &
b1110101 F
b1110101 q
1*
#1090000
0*
#1095000
b101 #
b101 i
b110 g
b110 W
b101 X
1Z
b1101100 &
b1101100 F
b1101100 q
1*
#1100000
0*
#1105000
b110 #
b110 i
b111 g
b111 W
b110 X
1Z
b1100101 &
b1100101 F
b1100101 q
1*
#1110000
0*
#1115000
b111 #
b111 i
b1000 g
b1000 W
b111 X
1Z
b100000 &
b100000 F
b100000 q
1*
#1120000
0*
#1125000
b1000 #
b1000 i
b1001 g
b1001 W
b1000 X
1Z
b1110100 &
b1110100 F
b1110100 q
1*
#1130000
0*
#1135000
b1001 #
b1001 i
b1010 g
b1010 W
b1001 X
1Z
b1100101 &
b1100101 F
b1100101 q
1*
#1140000
0*
#1145000
b1010 #
b1010 i
b1011 g
b1011 W
b1010 X
1Z
b1110011 &
b1110011 F
b1110011 q
1*
#1150000
0*
#1155000
b1011 #
b1011 i
b1100 g
b1100 W
b1011 X
1Z
b1110100 &
b1110100 F
b1110100 q
1*
#1160000
0*
#1165000
b1100 #
b1100 i
b1101 g
b1101 W
b1100 X
1Z
b111011 &
b111011 F
b111011 q
1*
#1170000
0*
#1175000
0!
b111 f
0Z
b1010 &
b1010 F
b1010 q
1*
#1180000
0*
#1185000
b1010 "
b1010 k
b1101 #
b1101 i
1!
b1 f
b0 [
b0 a
b1110 W
b1010 Y
b1101 X
1Z
b1101101 &
b1101101 F
b1101101 q
b10000 h
1*
#1190000
0*
#1195000
0!
b1000 f
0Z
bx &
bx F
bx q
1*
#1200000
0*
#1205000
b0 f
b1110 '
b1110 b
1(
b1010 &
b1010 F
b1010 q
1*
#1210000
0*
#1215000
b1100 #
b1100 i
0(
01
1*
#1220000
0*
#1225000
b1101101 &
b1101101 F
b1101101 q
1*
#1230000
0*
#1235000
1*
#1240000
0*
#1245000
1*
#1250000
0*
#1255000
1*
#1260000
0*
#1265000
b0 #
b0 i
b0 %
b0 -
1*
b0 2
#1270000
0*
#1275000
b1 2
1*
#1280000
0*
#1285000
b1 #
b1 i
b1 %
b1 -
1*
#1290000
0*
#1295000
b10 2
1*
#1300000
0*
#1305000
b10 #
b10 i
b10 %
b10 -
1*
#1310000
0*
#1315000
b11 2
1*
#1320000
0*
#1325000
b11 #
b11 i
b11 %
b11 -
1*
#1330000
0*
#1335000
b100 2
1*
#1340000
0*
#1345000
b100 #
b100 i
b100 %
b100 -
1*
#1350000
0*
#1355000
b101 2
1*
#1360000
0*
#1365000
b101 #
b101 i
b101 %
b101 -
1*
#1370000
0*
#1375000
b110 2
1*
#1380000
0*
#1385000
b110 #
b110 i
b110 %
b110 -
1*
#1390000
0*
#1395000
b111 2
1*
#1400000
0*
#1405000
b111 #
b111 i
b111 %
b111 -
1*
#1410000
0*
#1415000
b1000 2
1*
#1420000
0*
#1425000
b1000 #
b1000 i
b1000 %
b1000 -
1*
#1430000
0*
#1435000
b1001 2
1*
#1440000
0*
#1445000
b1001 #
b1001 i
b1001 %
b1001 -
1*
#1450000
0*
#1455000
b1010 2
1*
#1460000
0*
#1465000
b1010 #
b1010 i
b1010 %
b1010 -
1*
#1470000
0*
#1475000
b1011 2
1*
#1480000
0*
#1485000
b1011 #
b1011 i
b1011 %
b1011 -
1*
#1490000
0*
#1495000
b1100 2
1*
#1500000
0*
#1505000
b1100 #
b1100 i
b1100 %
b1100 -
1*
#1510000
0*
#1515000
b1101 2
1*
#1520000
0*
#1525000
b1101 #
b1101 i
b1101 %
b1101 -
1*
#1530000
0*
#1535000
b1010 &
b1010 F
b1010 q
b1110 2
1*
