build/tb_format_verify.vcd
$date
	Fri Mar 13 01:13:05 2026
$end
$version
	Icarus Verilog
$end
$timescale
	1ps
$end
$scope module tb_format_verify $end
$var wire 12 ! ram_rd_addr [11:0] $end
$var wire 1 " ram_rd_en $end
$var wire 12 # ram_wr_addr [11:0] $end
$var wire 8 $ ram_wr_data [7:0] $end
$var wire 1 % ram_wr_en $end
$var wire 8 & ram_rd_data [7:0] $end
$var wire 16 ' fmt_result_len [15:0] $end
$var wire 1 ( fmt_done $end
$var parameter 32 ) CLK_PERIOD $end
$var reg 1 * clk $end
$var reg 16 + fmt_data_len [15:0] $end
$var reg 1 , fmt_start $end
$var reg 12 - manual_rd_addr [11:0] $end
$var reg 1 . manual_rd_en $end
$var reg 12 / manual_wr_addr [11:0] $end
$var reg 8 0 manual_wr_data [7:0] $end
$var reg 1 1 manual_wr_en $end
$var reg 1 2 rst_n $end
$scope module u_formatter $end
$var wire 1 * clk $end
$var wire 16 3 data_len [15:0] $end
$var wire 1 4 decrease_indent $end
$var wire 1 5 increase_indent $end
$var wire 1 6 is_always_keyword $end
$var wire 1 7 is_begin_keyword $end
$var wire 1 8 is_case_keyword $end
$var wire 1 9 is_else_keyword $end
$var wire 1 : is_end_keyword $end
$var wire 1 ; is_endcase_keyword $end
$var wire 1 < is_endfunction_keyword $end
$var wire 1 = is_endgenerate_keyword $end
$var wire 1 > is_endmodule_keyword $end
$var wire 1 ? is_endtask_keyword $end
$var wire 1 @ is_fork_keyword $end
$var wire 1 A is_function_keyword $end
$var wire 1 B is_generate_keyword $end
$var wire 1 C is_join_keyword $end
$var wire 1 D is_module_keyword $end
$var wire 1 E is_task_keyword $end
$var wire 1 2 rst_n $end
$var wire 1 , start $end
$var wire 8 F src_rd_data [7:0] $end
$var parameter 32 G DATA_DEPTH $end
$var parameter 4 H FINISH $end
$var parameter 4 I IDLE $end
$var parameter 32 J INDENT_SIZE $end
$var parameter 32 K MAX_LINE_LEN $end
$var parameter 4 L PROCESS_LINE $end
$var parameter 4 M READ_CHAR $end
$var parameter 4 N WAIT_READ $end
$var parameter 4 O WAIT_READ2 $end
$var parameter 4 P WRITE_CONTENT $end
$var parameter 4 Q WRITE_INDENT $end
$var parameter 4 R WRITE_NEWLINE $end
$var reg 16 S bytes_remaining [15:0] $end
$var reg 9 T content_start [8:0] $end
$var reg 8 U curr_char [7:0] $end
$var reg 1 V decrease_indent_now $end
$var reg 1 ( done $end
$var reg 16 W dst_ptr [15:0] $end
$var reg 12 X dst_wr_addr [11:0] $end
$var reg 8 Y dst_wr_data [7:0] $end
$var reg 1 Z dst_wr_en $end
$var reg 5 [ first_token_len [4:0] $end
$var reg 1 \ increase_indent_next $end
$var reg 8 ] indent_level [7:0] $end
$var reg 8 ^ indent_to_write [7:0] $end
$var reg 1 _ is_comment_line $end
$var reg 1 ` is_empty_line $end
$var reg 9 a line_len [8:0] $end
$var reg 16 b result_len [15:0] $end
$var reg 16 c src_ptr [15:0] $end
$var reg 12 d src_rd_addr [11:0] $end
$var reg 1 e src_rd_en $end
$var reg 4 f state [3:0] $end
$var reg 9 g write_idx [8:0] $end
$var integer 32 h i [31:0] $end
$upscope $end
$scope module u_ram $end
$var wire 12 i addr_a [11:0] $end
$var wire 12 j addr_b [11:0] $end
$var wire 1 * clk $end
$var wire 8 k din_a [7:0] $end
$var wire 8 l din_b [7:0] $end
$var wire 1 2 rst_n $end
$var wire 1 % we_a $end
$var wire 1 m we_b $end
$var parameter 32 n ADDR_WIDTH $end
$var parameter 32 o DATA_WIDTH $end
$var parameter 32 p DEPTH $end
$var reg 8 q dout_a [7:0] $end
$var reg 8 r dout_b [7:0] $end
$upscope $end
$scope task read_result $end
$var reg 16 s len [15:0] $end
$var integer 32 t i [31:0] $end
$upscope $end
$scope task run_format_test $end
$var reg 2048 u input_code [2047:0] $end
$var reg 8 v input_len [7:0] $end
$var reg 1024 w test_name [1023:0] $end
$upscope $end
$scope task write_code $end
$var reg 8 x code_len [7:0] $end
$var reg 2048 y code_str [2047:0] $end
$var integer 32 z i [31:0] $end
$upscope $end
$upscope $end
$enddefinitions $end
$comment Show the parameter values. $end
$dumpall
b1000000000000 p
b1000 o
b1100 n
b111 R
b101 Q
b110 P
b11 O
b10 N
b1 M
b100 L
b100000000 K
b100 J
b0 I
b1000 H
b1000000000000 G
b1010 )
$end
#0
$dumpvars
bx z
bx y
bx x
bx w
bx v
bx u
bx t
bx s
bx r
bx q
0m
b0 l
bx k
b0 j
bx i
b10000 h
b0 g
b0 f
0e
b0 d
b0 c
b0 b
b0 a
0`
0_
b0 ^
b0 ]
0\
b0 [
0Z
b0 Y
b0 X
b0 W
0V
b0 U
b0 T
b0 S
bx F
0E
0D
0C
0B
0A
0@
0?
0>
0=
0<
0;
0:
09
08
07
06
05
04
b0 3
02
01
bx 0
bx /
0.
bx -
0,
b0 +
0*
0(
b0 '
bx &
x%
bx $
bx #
0"
b0 !
$end
#5000
b10000 h
1*
#10000
0*
#15000
b10000 h
1*
#20000
0*
#25000
b10000 h
1*
#30000
0*
#35000
b10000 h
1*
#40000
0*
#45000
b10000 h
1*
#50000
0*
#55000
b10000 h
1*
#60000
0*
#65000
b10000 h
1*
#70000
0*
#75000
b10000 h
1*
#80000
0*
#85000
b10000 h
1*
#90000
0*
#95000
b10000 h
1*
#100000
12
0*
#105000
1*
#110000
0*
#115000
1*
#120000
0*
#125000
1*
#130000
0*
#135000
1*
#140000
0*
#145000
1*
#150000
0*
#155000
1*
#160000
0*
#165000
1*
#170000
0*
#175000
1*
#180000
0*
#185000
1*
#190000
0*
#195000
1*
#200000
0*
b0 z
b101100 x
b1101101011011110110010001110101011011000110010100100000011101000110010101110011011101000011101101101001011011100111000001110101011101000010000001100011011011000110101100111011011011110111010101110100011100000111010101110100001000000110010001100001011101000110000100111011011001010110111001100100011011010110111101100100011101010110110001100101 y
b101100 v
b1101101011011110110010001110101011011000110010100100000011101000110010101110011011101000011101101101001011011100111000001110101011101000010000001100011011011000110101100111011011011110111010101110100011100000111010101110100001000000110010001100001011101000110000100111011011001010110111001100100011011010110111101100100011101010110110001100101 u
b111111111111111111111111111001011111111111111111111111111010100011111111111111111111111110010111 w
#205000
b1100101 0
b0 /
11
b1 z
1*
#210000
0*
#215000
b1101100 0
b1 /
b10 z
1*
#220000
0*
#225000
b1110101 0
b10 /
b11 z
1*
#230000
0*
#235000
b1100100 0
b11 /
b100 z
1*
#240000
0*
#245000
b1101111 0
b100 /
b101 z
1*
#250000
0*
#255000
b1101101 0
b101 /
b110 z
1*
#260000
0*
#265000
b1100100 0
b110 /
b111 z
1*
#270000
0*
#275000
b1101110 0
b111 /
b1000 z
1*
#280000
0*
#285000
b1100101 0
b1000 /
b1001 z
1*
#290000
0*
#295000
b111011 0
b1001 /
b1010 z
1*
#300000
0*
#305000
b1100001 0
b1010 /
b1011 z
1*
#310000
0*
#315000
b1110100 0
b1011 /
b1100 z
1*
#320000
0*
#325000
b1100001 0
b1100 /
b1101 z
1*
#330000
0*
#335000
b1100100 0
b1101 /
b1110 z
1*
#340000
0*
#345000
b100000 0
b1110 /
b1111 z
1*
#350000
0*
#355000
b1110100 0
b1111 /
b10000 z
1*
#360000
0*
#365000
b1110101 0
b10000 /
b10001 z
1*
#370000
0*
#375000
b1110000 0
b10001 /
b10010 z
1*
#380000
0*
#385000
b1110100 0
b10010 /
b10011 z
1*
#390000
0*
#395000
b1110101 0
b10011 /
b10100 z
1*
#400000
0*
#405000
b1101111 0
b10100 /
b10101 z
1*
#410000
0*
#415000
b111011 0
b10101 /
b10110 z
1*
#420000
0*
#425000
b1101011 0
b10110 /
b10111 z
1*
#430000
0*
#435000
b1101100 0
b10111 /
b11000 z
1*
#440000
0*
#445000
b1100011 0
b11000 /
b11001 z
1*
#450000
0*
#455000
b100000 0
b11001 /
b11010 z
1*
#460000
0*
#465000
b1110100 0
b11010 /
b11011 z
1*
#470000
0*
#475000
b1110101 0
b11011 /
b11100 z
1*
#480000
0*
#485000
b1110000 0
b11100 /
b11101 z
1*
#490000
0*
#495000
b1101110 0
b11101 /
b11110 z
1*
#500000
0*
#505000
b1101001 0
b11110 /
b11111 z
1*
#510000
0*
#515000
b111011 0
b11111 /
b100000 z
1*
#520000
0*
#525000
b1110100 0
b100000 /
b100001 z
1*
#530000
0*
#535000
b1110011 0
b100001 /
b100010 z
1*
#540000
0*
#545000
b1100101 0
b100010 /
b100011 z
1*
#550000
0*
#555000
b1110100 0
b100011 /
b100100 z
1*
#560000
0*
#565000
b100000 0
b100100 /
b100101 z
1*
#570000
0*
#575000
b1100101 0
b100101 /
b100110 z
1*
#580000
0*
#585000
b1101100 0
b100110 /
b100111 z
1*
#590000
0*
#595000
b1110101 0
b100111 /
b101000 z
1*
#600000
0*
#605000
b1100100 0
b101000 /
b101001 z
1*
#610000
0*
#615000
b1101111 0
b101001 /
b101010 z
1*
#620000
0*
#625000
b1101101 0
b101010 /
b101011 z
1*
#630000
0*
#635000
b0 0
b101011 /
b101100 z
1*
#640000
0*
#645000
01
1*
#650000
0*
#655000
1,
b101100 +
b101100 3
1*
#660000
0*
#665000
b101100 S
b1 f
0,
b10000 h
1*
#670000
0*
#675000
b10 f
1"
1e
1*
#680000
0*
#685000
b11 f
1"
1e
1*
#690000
0*
#695000
b1 f
b101011 S
b1 c
bx U
1"
1e
1*
#700000
0*
#705000
b10 f
b1 !
b1 d
1"
1e
1*
#710000
0*
#715000
b11 f
1"
1e
1*
#720000
0*
#725000
b1 f
b101010 S
b10 c
1"
1e
1*
#730000
0*
#735000
b10 f
b10 !
b10 d
1"
1e
1*
#740000
0*
#745000
b11 f
1"
1e
1*
#750000
0*
#755000
b1 f
b101001 S
b11 c
1"
1e
1*
#760000
0*
#765000
b10 f
b11 !
b11 d
1"
1e
1*
#770000
0*
#775000
b11 f
1"
1e
1*
#780000
0*
#785000
b1 f
b101000 S
b100 c
1"
1e
1*
#790000
0*
#795000
b10 f
b100 !
b100 d
1"
1e
1*
#800000
0*
#805000
b11 f
1"
1e
1*
#810000
0*
#815000
b1 f
b100111 S
b101 c
1"
1e
1*
#820000
0*
#825000
b10 f
b101 !
b101 d
1"
1e
1*
#830000
0*
#835000
b11 f
1"
1e
1*
#840000
0*
#845000
b1 f
b100110 S
b110 c
1"
1e
1*
#850000
0*
#855000
b10 f
b110 !
b110 d
1"
1e
1*
#860000
0*
#865000
b11 f
1"
1e
1*
#870000
0*
#875000
b1 f
b100101 S
b111 c
1"
1e
1*
#880000
0*
#885000
b10 f
b111 !
b111 d
1"
1e
1*
#890000
0*
#895000
b11 f
1"
1e
1*
#900000
0*
#905000
b1 f
b100100 S
b1000 c
1"
1e
1*
#910000
0*
#915000
b10 f
b1000 !
b1000 d
1"
1e
1*
#920000
0*
#925000
b11 f
1"
1e
1*
#930000
0*
#935000
b1 f
b100011 S
b1001 c
1"
1e
1*
#940000
0*
#945000
b10 f
b1001 !
b1001 d
1"
1e
1*
#950000
0*
#955000
b11 f
1"
1e
1*
#960000
0*
#965000
b1 f
b100010 S
b1010 c
1"
1e
1*
#970000
0*
#975000
b10 f
b1010 !
b1010 d
1"
1e
1*
#980000
0*
#985000
b11 f
1"
1e
1*
#990000
0*
#995000
b1 f
b100001 S
b1011 c
1"
1e
1*
#1000000
0*
#1005000
b10 f
b1011 !
b1011 d
1"
1e
1*
#1010000
0*
#1015000
b11 f
1"
1e
1*
#1020000
0*
#1025000
b1 f
b100000 S
b1100 c
1"
1e
1*
#1030000
0*
#1035000
b10 f
b1100 !
b1100 d
1"
1e
1*
#1040000
0*
#1045000
b11 f
1"
1e
1*
#1050000
0*
#1055000
b1 f
b11111 S
b1101 c
1"
1e
1*
#1060000
0*
#1065000
b10 f
b1101 !
b1101 d
1"
1e
1*
#1070000
0*
#1075000
b11 f
1"
1e
1*
#1080000
0*
#1085000
b1 f
b11110 S
b1110 c
1"
1e
1*
#1090000
0*
#1095000
b10 f
b1110 !
b1110 d
1"
1e
1*
#1100000
0*
#1105000
b11 f
1"
1e
1*
#1110000
0*
#1115000
b1 f
b11101 S
b1111 c
1"
1e
1*
#1120000
0*
#1125000
b10 f
b1111 !
b1111 d
1"
1e
1*
#1130000
0*
#1135000
b11 f
1"
1e
1*
#1140000
0*
#1145000
b1 f
b11100 S
b10000 c
1"
1e
1*
#1150000
0*
#1155000
b10 f
b10000 !
b10000 d
1"
1e
1*
#1160000
0*
#1165000
b11 f
1"
1e
1*
#1170000
0*
#1175000
b1 f
b11011 S
b10001 c
1"
1e
1*
#1180000
0*
#1185000
b10 f
b10001 !
b10001 d
1"
1e
1*
#1190000
0*
#1195000
b11 f
1"
1e
1*
#1200000
0*
#1205000
b1 f
b11010 S
b10010 c
1"
1e
1*
#1210000
0*
#1215000
b10 f
b10010 !
b10010 d
1"
1e
1*
#1220000
0*
#1225000
b11 f
1"
1e
1*
#1230000
0*
#1235000
b1 f
b11001 S
b10011 c
1"
1e
1*
#1240000
0*
#1245000
b10 f
b10011 !
b10011 d
1"
1e
1*
#1250000
0*
#1255000
b11 f
1"
1e
1*
#1260000
0*
#1265000
b1 f
b11000 S
b10100 c
1"
1e
1*
#1270000
0*
#1275000
b10 f
b10100 !
b10100 d
1"
1e
1*
#1280000
0*
#1285000
b11 f
1"
1e
1*
#1290000
0*
#1295000
b1 f
b10111 S
b10101 c
1"
1e
1*
#1300000
0*
#1305000
b10 f
b10101 !
b10101 d
1"
1e
1*
#1310000
0*
#1315000
b11 f
1"
1e
1*
#1320000
0*
#1325000
b1 f
b10110 S
b10110 c
1"
1e
1*
#1330000
0*
#1335000
b10 f
b10110 !
b10110 d
1"
1e
1*
#1340000
0*
#1345000
b11 f
1"
1e
1*
#1350000
0*
#1355000
b1 f
b10101 S
b10111 c
1"
1e
1*
#1360000
0*
#1365000
b10 f
b10111 !
b10111 d
1"
1e
1*
#1370000
0*
#1375000
b11 f
1"
1e
1*
#1380000
0*
#1385000
b1 f
b10100 S
b11000 c
1"
1e
1*
#1390000
0*
#1395000
b10 f
b11000 !
b11000 d
1"
1e
1*
#1400000
0*
#1405000
b11 f
1"
1e
1*
#1410000
0*
#1415000
b1 f
b10011 S
b11001 c
1"
1e
1*
#1420000
0*
#1425000
b10 f
b11001 !
b11001 d
1"
1e
1*
#1430000
0*
#1435000
b11 f
1"
1e
1*
#1440000
0*
#1445000
b1 f
b10010 S
b11010 c
1"
1e
1*
#1450000
0*
#1455000
b10 f
b11010 !
b11010 d
1"
1e
1*
#1460000
0*
#1465000
b11 f
1"
1e
1*
#1470000
0*
#1475000
b1 f
b10001 S
b11011 c
1"
1e
1*
#1480000
0*
#1485000
b10 f
b11011 !
b11011 d
1"
1e
1*
#1490000
0*
#1495000
b11 f
1"
1e
1*
#1500000
0*
#1505000
b1 f
b10000 S
b11100 c
1"
1e
1*
#1510000
0*
#1515000
b10 f
b11100 !
b11100 d
1"
1e
1*
#1520000
0*
#1525000
b11 f
1"
1e
1*
#1530000
0*
#1535000
b1 f
b1111 S
b11101 c
1"
1e
1*
#1540000
0*
#1545000
b10 f
b11101 !
b11101 d
1"
1e
1*
#1550000
0*
#1555000
b11 f
1"
1e
1*
#1560000
0*
#1565000
b1 f
b1110 S
b11110 c
1"
1e
1*
#1570000
0*
#1575000
b10 f
b11110 !
b11110 d
1"
1e
1*
#1580000
0*
#1585000
b11 f
1"
1e
1*
#1590000
0*
#1595000
b1 f
b1101 S
b11111 c
1"
1e
1*
#1600000
0*
#1605000
b10 f
b11111 !
b11111 d
1"
1e
1*
#1610000
0*
#1615000
b11 f
1"
1e
1*
#1620000
0*
#1625000
b1 f
b1100 S
b100000 c
1"
1e
1*
#1630000
0*
#1635000
b10 f
b100000 !
b100000 d
1"
1e
1*
#1640000
0*
#1645000
b11 f
1"
1e
1*
#1650000
0*
#1655000
b1 f
b1011 S
b100001 c
1"
1e
1*
#1660000
0*
#1665000
b10 f
b100001 !
b100001 d
1"
1e
1*
#1670000
0*
#1675000
b11 f
1"
1e
1*
#1680000
0*
#1685000
b1 f
b1010 S
b100010 c
1"
1e
1*
#1690000
0*
#1695000
b10 f
b100010 !
b100010 d
1"
1e
1*
#1700000
0*
#1705000
b11 f
1"
1e
1*
#1710000
0*
#1715000
b1 f
b1001 S
b100011 c
1"
1e
1*
#1720000
0*
#1725000
b10 f
b100011 !
b100011 d
1"
1e
1*
#1730000
0*
#1735000
b11 f
1"
1e
1*
#1740000
0*
#1745000
b1 f
b1000 S
b100100 c
1"
1e
1*
#1750000
0*
#1755000
b10 f
b100100 !
b100100 d
1"
1e
1*
#1760000
0*
#1765000
b11 f
1"
1e
1*
#1770000
0*
#1775000
b1 f
b111 S
b100101 c
1"
1e
1*
#1780000
0*
#1785000
b10 f
b100101 !
b100101 d
1"
1e
1*
#1790000
0*
#1795000
b11 f
1"
1e
1*
#1800000
0*
#1805000
b1 f
b110 S
b100110 c
1"
1e
1*
#1810000
0*
#1815000
b10 f
b100110 !
b100110 d
1"
1e
1*
#1820000
0*
#1825000
b11 f
1"
1e
1*
#1830000
0*
#1835000
b1 f
b101 S
b100111 c
1"
1e
1*
#1840000
0*
#1845000
b10 f
b100111 !
b100111 d
1"
1e
1*
#1850000
0*
#1855000
b11 f
1"
1e
1*
#1860000
0*
#1865000
b1 f
b100 S
b101000 c
1"
1e
1*
#1870000
0*
#1875000
b10 f
b101000 !
b101000 d
1"
1e
1*
#1880000
0*
#1885000
b11 f
1"
1e
1*
#1890000
0*
#1895000
b1 f
b11 S
b101001 c
1"
1e
1*
#1900000
0*
#1905000
b10 f
b101001 !
b101001 d
1"
1e
1*
#1910000
0*
#1915000
b11 f
1"
1e
1*
#1920000
0*
#1925000
b1 f
b10 S
b101010 c
1"
1e
1*
#1930000
0*
#1935000
b10 f
b101010 !
b101010 d
1"
1e
1*
#1940000
0*
#1945000
b11 f
1"
1e
1*
#1950000
0*
#1955000
b1 f
b1 S
b101011 c
1"
1e
1*
#1960000
0*
#1965000
b10 f
b101011 !
b101011 d
1"
1e
1*
#1970000
0*
#1975000
b11 f
1"
1e
1*
#1980000
0*
#1985000
b1 f
b0 S
b101100 c
1"
1e
1*
#1990000
0*
#1995000
b1000 f
0"
0e
1*
#2000000
0*
#2005000
b0 $
b0 k
b0x0x0xx #
b0x0x0xx i
0%
b0 f
1(
1*
#2010000
0*
#2015000
0(
b0 z
b10010110 x
b11011010110111101100100011101010110110001100101001000000110001101101111011101010110111001110100011001010111001000101000011010010110111001110000011101010111010000100000011101110110100101110010011001010010000001100011011011000110101100101100011010010110111001110000011101010111010000100000011101110110100101110010011001010010000001110010011100110111010000101100011011110111010101110100011100000111010101110100001000000111001001100101011001110010000001011011001101110011101000110000010111010010000001100011011011110111010101101110011101000010100100111011011000010110110001110111011000010111100101110011001000000100000000101000011100000110111101110011011001010110010001100111011001010010000001100011011011000110101100101001001000000110001001100101011001110110100101101110001000000110100101100110001010000010000101110010011100110111010000101001001000000110001001100101011001110110100101101110001000000110001101101111011101010110111001110100001111000011110100110000001110110110010101101110011001000010000001100101011011000111001101100101001000000110001001100101011001110110100101101110001000000110001101101111011101010110111001110100001111000011110101100011011011110111010101101110011101000010101100110001001110110110010101101110011001000010000001100101011011100110010000100000011001010110111001100100011011010110111101100100011101010110110001100101 y
b10010110 v
b11011010110111101100100011101010110110001100101001000000110001101101111011101010110111001110100011001010111001000101000011010010110111001110000011101010111010000100000011101110110100101110010011001010010000001100011011011000110101100101100011010010110111001110000011101010111010000100000011101110110100101110010011001010010000001110010011100110111010000101100011011110111010101110100011100000111010101110100001000000111001001100101011001110010000001011011001101110011101000110000010111010010000001100011011011110111010101101110011101000010100100111011011000010110110001110111011000010111100101110011001000000100000000101000011100000110111101110011011001010110010001100111011001010010000001100011011011000110101100101001001000000110001001100101011001110110100101101110001000000110100101100110001010000010000101110010011100110111010000101001001000000110001001100101011001110110100101101110001000000110001101101111011101010110111001110100001111000011110100110000001110110110010101101110011001000010000001100101011011000111001101100101001000000110001001100101011001110110100101101110001000000110001101101111011101010110111001110100001111000011110101100011011011110111010101101110011101000010101100110001001110110110010101101110011001000010000001100101011011100110010000100000011001010110111001100100011011010110111101100100011101010110110001100101 u
b1111111111111111111111111011100011111111111111111111111110101001111111111111111111111111111001111111111111111111111111111010100011111111111111111111111110010111 w
b0 t
b0 s
1*
#2020000
0*
#2025000
b1100101 0
b0 /
11
b1 z
1*
#2030000
0*
#2035000
b1101100 0
b1 /
b10 z
1*
#2040000
0*
#2045000
b1110101 0
b10 /
b11 z
1*
#2050000
0*
#2055000
b1100100 0
b11 /
b100 z
1*
#2060000
0*
#2065000
b1101111 0
b100 /
b101 z
1*
#2070000
0*
#2075000
b1101101 0
b101 /
b110 z
1*
#2080000
0*
#2085000
b1100100 0
b110 /
b111 z
1*
#2090000
0*
#2095000
b1101110 0
b111 /
b1000 z
1*
#2100000
0*
#2105000
b1100101 0
b1000 /
b1001 z
1*
#2110000
0*
#2115000
b100000 0
b1001 /
b1010 z
1*
#2120000
0*
#2125000
b1100100 0
b1010 /
b1011 z
1*
#2130000
0*
#2135000
b1101110 0
b1011 /
b1100 z
1*
#2140000
0*
#2145000
b1100101 0
b1100 /
b1101 z
1*
#2150000
0*
#2155000
b100000 0
b1101 /
b1110 z
1*
#2160000
0*
#2165000
b1100100 0
b1110 /
b1111 z
1*
#2170000
0*
#2175000
b1101110 0
b1111 /
b10000 z
1*
#2180000
0*
#2185000
b1100101 0
b10000 /
b10001 z
1*
#2190000
0*
#2195000
b111011 0
b10001 /
b10010 z
1*
#2200000
0*
#2205000
b110001 0
b10010 /
b10011 z
1*
#2210000
0*
#2215000
b101011 0
b10011 /
b10100 z
1*
#2220000
0*
#2225000
b1110100 0
b10100 /
b10101 z
1*
#2230000
0*
#2235000
b1101110 0
b10101 /
b10110 z
1*
#2240000
0*
#2245000
b1110101 0
b10110 /
b10111 z
1*
#2250000
0*
#2255000
b1101111 0
b10111 /
b11000 z
1*
#2260000
0*
#2265000
b1100011 0
b11000 /
b11001 z
1*
#2270000
0*
#2275000
b111101 0
b11001 /
b11010 z
1*
#2280000
0*
#2285000
b111100 0
b11010 /
b11011 z
1*
#2290000
0*
#2295000
b1110100 0
b11011 /
b11100 z
1*
#2300000
0*
#2305000
b1101110 0
b11100 /
b11101 z
1*
#2310000
0*
#2315000
b1110101 0
b11101 /
b11110 z
1*
#2320000
0*
#2325000
b1101111 0
b11110 /
b11111 z
1*
#2330000
0*
#2335000
b1100011 0
b11111 /
b100000 z
1*
#2340000
0*
#2345000
b100000 0
b100000 /
b100001 z
1*
#2350000
0*
#2355000
b1101110 0
b100001 /
b100010 z
1*
#2360000
0*
#2365000
b1101001 0
b100010 /
b100011 z
1*
#2370000
0*
#2375000
b1100111 0
b100011 /
b100100 z
1*
#2380000
0*
#2385000
b1100101 0
b100100 /
b100101 z
1*
#2390000
0*
#2395000
b1100010 0
b100101 /
b100110 z
1*
#2400000
0*
#2405000
b100000 0
b100110 /
b100111 z
1*
#2410000
0*
#2415000
b1100101 0
b100111 /
b101000 z
1*
#2420000
0*
#2425000
b1110011 0
b101000 /
b101001 z
1*
#2430000
0*
#2435000
b1101100 0
b101001 /
b101010 z
1*
#2440000
0*
#2445000
b1100101 0
b101010 /
b101011 z
1*
#2450000
0*
#2455000
b100000 0
b101011 /
b101100 z
1*
#2460000
0*
#2465000
b1100100 0
b101100 /
b101101 z
1*
#2470000
0*
#2475000
b1101110 0
b101101 /
b101110 z
1*
#2480000
0*
#2485000
b1100101 0
b101110 /
b101111 z
1*
#2490000
0*
#2495000
b111011 0
b101111 /
b110000 z
1*
#2500000
0*
#2505000
b110000 0
b110000 /
b110001 z
1*
#2510000
0*
#2515000
b111101 0
b110001 /
b110010 z
1*
#2520000
0*
#2525000
b111100 0
b110010 /
b110011 z
1*
#2530000
0*
#2535000
b1110100 0
b110011 /
b110100 z
1*
#2540000
0*
#2545000
b1101110 0
b110100 /
b110101 z
1*
#2550000
0*
#2555000
b1110101 0
b110101 /
b110110 z
1*
#2560000
0*
#2565000
b1101111 0
b110110 /
b110111 z
1*
#2570000
0*
#2575000
b1100011 0
b110111 /
b111000 z
1*
#2580000
0*
#2585000
b100000 0
b111000 /
b111001 z
1*
#2590000
0*
#2595000
b1101110 0
b111001 /
b111010 z
1*
#2600000
0*
#2605000
b1101001 0
b111010 /
b111011 z
1*
#2610000
0*
#2615000
b1100111 0
b111011 /
b111100 z
1*
#2620000
0*
#2625000
b1100101 0
b111100 /
b111101 z
1*
#2630000
0*
#2635000
b1100010 0
b111101 /
b111110 z
1*
#2640000
0*
#2645000
b100000 0
b111110 /
b111111 z
1*
#2650000
0*
#2655000
b101001 0
b111111 /
b1000000 z
1*
#2660000
0*
#2665000
b1110100 0
b1000000 /
b1000001 z
1*
#2670000
0*
#2675000
b1110011 0
b1000001 /
b1000010 z
1*
#2680000
0*
#2685000
b1110010 0
b1000010 /
b1000011 z
1*
#2690000
0*
#2695000
b100001 0
b1000011 /
b1000100 z
1*
#2700000
0*
#2705000
b101000 0
b1000100 /
b1000101 z
1*
#2710000
0*
#2715000
b1100110 0
b1000101 /
b1000110 z
1*
#2720000
0*
#2725000
b1101001 0
b1000110 /
b1000111 z
1*
#2730000
0*
#2735000
b100000 0
b1000111 /
b1001000 z
1*
#2740000
0*
#2745000
b1101110 0
b1001000 /
b1001001 z
1*
#2750000
0*
#2755000
b1101001 0
b1001001 /
b1001010 z
1*
#2760000
0*
#2765000
b1100111 0
b1001010 /
b1001011 z
1*
#2770000
0*
#2775000
b1100101 0
b1001011 /
b1001100 z
1*
#2780000
0*
#2785000
b1100010 0
b1001100 /
b1001101 z
1*
#2790000
0*
#2795000
b100000 0
b1001101 /
b1001110 z
1*
#2800000
0*
#2805000
b101001 0
b1001110 /
b1001111 z
1*
#2810000
0*
#2815000
b1101011 0
b1001111 /
b1010000 z
1*
#2820000
0*
#2825000
b1101100 0
b1010000 /
b1010001 z
1*
#2830000
0*
#2835000
b1100011 0
b1010001 /
b1010010 z
1*
#2840000
0*
#2845000
b100000 0
b1010010 /
b1010011 z
1*
#2850000
0*
#2855000
b1100101 0
b1010011 /
b1010100 z
1*
#2860000
0*
#2865000
b1100111 0
b1010100 /
b1010101 z
1*
#2870000
0*
#2875000
b1100100 0
b1010101 /
b1010110 z
1*
#2880000
0*
#2885000
b1100101 0
b1010110 /
b1010111 z
1*
#2890000
0*
#2895000
b1110011 0
b1010111 /
b1011000 z
1*
#2900000
0*
#2905000
b1101111 0
b1011000 /
b1011001 z
1*
#2910000
0*
#2915000
b1110000 0
b1011001 /
b1011010 z
1*
#2920000
0*
#2925000
b101000 0
b1011010 /
b1011011 z
1*
#2930000
0*
#2935000
b1000000 0
b1011011 /
b1011100 z
1*
#2940000
0*
#2945000
b100000 0
b1011100 /
b1011101 z
1*
#2950000
0*
#2955000
b1110011 0
b1011101 /
b1011110 z
1*
#2960000
0*
#2965000
b1111001 0
b1011110 /
b1011111 z
1*
#2970000
0*
#2975000
b1100001 0
b1011111 /
b1100000 z
1*
#2980000
0*
#2985000
b1110111 0
b1100000 /
b1100001 z
1*
#2990000
0*
#2995000
b1101100 0
b1100001 /
b1100010 z
1*
#3000000
0*
#3005000
b1100001 0
b1100010 /
b1100011 z
1*
#3010000
0*
#3015000
b111011 0
b1100011 /
b1100100 z
1*
#3020000
0*
#3025000
b101001 0
b1100100 /
b1100101 z
1*
#3030000
0*
#3035000
b1110100 0
b1100101 /
b1100110 z
1*
#3040000
0*
#3045000
b1101110 0
b1100110 /
b1100111 z
1*
#3050000
0*
#3055000
b1110101 0
b1100111 /
b1101000 z
1*
#3060000
0*
#3065000
b1101111 0
b1101000 /
b1101001 z
1*
#3070000
0*
#3075000
b1100011 0
b1101001 /
b1101010 z
1*
#3080000
0*
#3085000
b100000 0
b1101010 /
b1101011 z
1*
#3090000
0*
#3095000
b1011101 0
b1101011 /
b1101100 z
1*
#3100000
0*
#3105000
b110000 0
b1101100 /
b1101101 z
1*
#3110000
0*
#3115000
b111010 0
b1101101 /
b1101110 z
1*
#3120000
0*
#3125000
b110111 0
b1101110 /
b1101111 z
1*
#3130000
0*
#3135000
b1011011 0
b1101111 /
b1110000 z
1*
#3140000
0*
#3145000
b100000 0
b1110000 /
b1110001 z
1*
#3150000
0*
#3155000
b1100111 0
b1110001 /
b1110010 z
1*
#3160000
0*
#3165000
b1100101 0
b1110010 /
b1110011 z
1*
#3170000
0*
#3175000
b1110010 0
b1110011 /
b1110100 z
1*
#3180000
0*
#3185000
b100000 0
b1110100 /
b1110101 z
1*
#3190000
0*
#3195000
b1110100 0
b1110101 /
b1110110 z
1*
#3200000
0*
#3205000
b1110101 0
b1110110 /
b1110111 z
1*
#3210000
0*
#3215000
b1110000 0
b1110111 /
b1111000 z
1*
#3220000
0*
#3225000
b1110100 0
b1111000 /
b1111001 z
1*
#3230000
0*
#3235000
b1110101 0
b1111001 /
b1111010 z
1*
#3240000
0*
#3245000
b1101111 0
b1111010 /
b1111011 z
1*
#3250000
0*
#3255000
b101100 0
b1111011 /
b1111100 z
1*
#3260000
0*
#3265000
b1110100 0
b1111100 /
b1111101 z
1*
#3270000
0*
#3275000
b1110011 0
b1111101 /
b1111110 z
1*
#3280000
0*
#3285000
b1110010 0
b1111110 /
b1111111 z
1*
#3290000
0*
#3295000
b100000 0
b1111111 /
b10000000 z
1*
#3300000
0*
#3305000
b1100101 0
b10000000 /
b10000001 z
1*
#3310000
0*
#3315000
b1110010 0
b10000001 /
b10000010 z
1*
#3320000
0*
#3325000
b1101001 0
b10000010 /
b10000011 z
1*
#3330000
0*
#3335000
b1110111 0
b10000011 /
b10000100 z
1*
#3340000
0*
#3345000
b100000 0
b10000100 /
b10000101 z
1*
#3350000
0*
