build/tb_i2c_formatter.vcd
$date
	Fri Mar 13 10:26:46 2026
$end
$version
	Icarus Verilog
$end
$timescale
	1ps
$end
$scope module tb_i2c_formatter $end
$var wire 1 ! scl $end
$var wire 1 " sda $end
$var parameter 32 # CLK_PERIOD $end
$var parameter 7 $ I2C_ADDR $end
$var reg 1 % ack $end
$var reg 1 & clk $end
$var reg 1 ' rst_n $end
$var reg 8 ( rx_data [7:0] $end
$var reg 16 ) rx_len [15:0] $end
$var reg 1 * scl_drv $end
$var reg 1 + sda_drv $end
$var reg 1 , sda_oe $end
$var reg 8 - tx_data [7:0] $end
$var integer 32 . i [31:0] $end
$var integer 32 / test_data_len [31:0] $end
$scope module uut $end
$var wire 1 & clk $end
$var wire 8 0 fmt_ram_rd_data [7:0] $end
$var wire 8 1 i2c_ram_rd_data [7:0] $end
$var wire 1 ' rst_n $end
$var wire 1 ! scl $end
$var wire 1 " sda $end
$var wire 1 2 ram_we_a $end
$var wire 8 3 ram_dout_a [7:0] $end
$var wire 8 4 ram_din_a [7:0] $end
$var wire 12 5 ram_addr_a [11:0] $end
$var wire 1 6 i2c_ram_wr_en $end
$var wire 8 7 i2c_ram_wr_data [7:0] $end
$var wire 12 8 i2c_ram_wr_addr [11:0] $end
$var wire 1 9 i2c_ram_rd_en $end
$var wire 12 : i2c_ram_rd_addr [11:0] $end
$var wire 1 ; fmt_start $end
$var wire 16 < fmt_result_len [15:0] $end
$var wire 1 = fmt_ram_wr_en $end
$var wire 8 > fmt_ram_wr_data [7:0] $end
$var wire 12 ? fmt_ram_wr_addr [11:0] $end
$var wire 1 @ fmt_ram_rd_en $end
$var wire 12 A fmt_ram_rd_addr [11:0] $end
$var wire 1 B fmt_done $end
$var wire 16 C fmt_data_len [15:0] $end
$var parameter 7 D I2C_ADDR $end
$var reg 1 E ram_sel $end
$scope module u_formatter $end
$var wire 1 & clk $end
$var wire 1 F decrease_indent $end
$var wire 1 G increase_indent $end
$var wire 1 H is_always_keyword $end
$var wire 1 I is_begin_keyword $end
$var wire 1 J is_case_keyword $end
$var wire 1 K is_else_keyword $end
$var wire 1 L is_end_keyword $end
$var wire 1 M is_endcase_keyword $end
$var wire 1 N is_endfunction_keyword $end
$var wire 1 O is_endgenerate_keyword $end
$var wire 1 P is_endmodule_keyword $end
$var wire 1 Q is_endtask_keyword $end
$var wire 1 R is_fork_keyword $end
$var wire 1 S is_function_keyword $end
$var wire 1 T is_generate_keyword $end
$var wire 1 U is_join_keyword $end
$var wire 1 V is_module_keyword $end
$var wire 1 W is_task_keyword $end
$var wire 1 ' rst_n $end
$var wire 8 X src_rd_data [7:0] $end
$var wire 1 ; start $end
$var wire 16 Y data_len [15:0] $end
$var parameter 32 Z DATA_DEPTH $end
$var parameter 4 [ FINISH $end
$var parameter 4 \ IDLE $end
$var parameter 32 ] INDENT_SIZE $end
$var parameter 32 ^ MAX_LINE_LEN $end
$var parameter 4 _ PROCESS_LINE $end
$var parameter 4 ` READ_CHAR $end
$var parameter 4 a WAIT_READ $end
$var parameter 4 b WAIT_READ2 $end
$var parameter 4 c WRITE_CONTENT $end
$var parameter 4 d WRITE_INDENT $end
$var parameter 4 e WRITE_NEWLINE $end
$var reg 16 f bytes_remaining [15:0] $end
$var reg 9 g content_start [8:0] $end
$var reg 8 h curr_char [7:0] $end
$var reg 1 i decrease_indent_now $end
$var reg 1 B done $end
$var reg 16 j dst_ptr [15:0] $end
$var reg 12 k dst_wr_addr [11:0] $end
$var reg 8 l dst_wr_data [7:0] $end
$var reg 1 = dst_wr_en $end
$var reg 5 m first_token_len [4:0] $end
$var reg 1 n increase_indent_next $end
$var reg 8 o indent_level [7:0] $end
$var reg 8 p indent_to_write [7:0] $end
$var reg 1 q is_comment_line $end
$var reg 1 r is_empty_line $end
$var reg 9 s line_len [8:0] $end
$var reg 16 t result_len [15:0] $end
$var reg 16 u src_ptr [15:0] $end
$var reg 12 v src_rd_addr [11:0] $end
$var reg 1 @ src_rd_en $end
$var reg 4 w state [3:0] $end
$var reg 9 x write_idx [8:0] $end
$var integer 32 y i [31:0] $end
$upscope $end
$scope module u_i2c_slave $end
$var wire 1 & clk $end
$var wire 1 B fmt_done $end
$var wire 16 z fmt_result_len [15:0] $end
$var wire 8 { ram_rd_data [7:0] $end
$var wire 1 ' rst_n $end
$var wire 1 ! scl $end
$var wire 1 | scl_falling $end
$var wire 1 } scl_rising $end
$var wire 1 " sda $end
$var wire 1 ~ start_cond $end
$var wire 1 !" stop_cond $end
$var parameter 32 "" DATA_DEPTH $end
$var parameter 7 #" I2C_ADDR $end
$var parameter 4 $" IDLE $end
$var parameter 4 %" RX_ADDR $end
$var parameter 4 &" RX_DATA $end
$var parameter 4 '" RX_DATA_ACK $end
$var parameter 4 (" TX_ADDR_ACK $end
$var parameter 4 )" TX_DATA $end
$var parameter 4 *" TX_DATA_ACK $end
$var parameter 4 +" TX_LEN_HIGH $end
$var parameter 4 ," TX_LEN_LOW $end
$var parameter 4 -" WAIT_FMT $end
$var reg 1 ." addr_match $end
$var reg 4 /" bit_cnt [3:0] $end
$var reg 1 0" fmt_active $end
$var reg 16 1" fmt_data_len [15:0] $end
$var reg 1 ; fmt_start $end
$var reg 12 2" ram_rd_addr [11:0] $end
$var reg 1 9 ram_rd_en $end
$var reg 12 3" ram_wr_addr [11:0] $end
$var reg 8 4" ram_wr_data [7:0] $end
$var reg 1 6 ram_wr_en $end
$var reg 1 5" rw_bit $end
$var reg 16 6" rx_byte_cnt [15:0] $end
$var reg 1 7" scl_prev $end
$var reg 1 8" scl_stable $end
$var reg 3 9" scl_sync [2:0] $end
$var reg 1 :" sda_out $end
$var reg 1 ;" sda_out_en $end
$var reg 1 <" sda_prev $end
$var reg 1 =" sda_stable $end
$var reg 3 >" sda_sync [2:0] $end
$var reg 8 ?" shift_reg [7:0] $end
$var reg 4 @" state [3:0] $end
$var reg 16 A" tx_byte_cnt [15:0] $end
$upscope $end
$scope module u_ram $end
$var wire 12 B" addr_a [11:0] $end
$var wire 12 C" addr_b [11:0] $end
$var wire 1 & clk $end
$var wire 8 D" din_a [7:0] $end
$var wire 8 E" din_b [7:0] $end
$var wire 1 ' rst_n $end
$var wire 1 2 we_a $end
$var wire 1 F" we_b $end
$var parameter 32 G" ADDR_WIDTH $end
$var parameter 32 H" DATA_WIDTH $end
$var parameter 32 I" DEPTH $end
$var reg 8 J" dout_a [7:0] $end
$var reg 8 K" dout_b [7:0] $end
$upscope $end
$upscope $end
$scope task i2c_read_byte $end
$var reg 8 L" data [7:0] $end
$var reg 1 M" send_ack $end
$var integer 32 N" i [31:0] $end
$upscope $end
$scope task i2c_start $end
$upscope $end
$scope task i2c_stop $end
$upscope $end
$scope task i2c_write_byte $end
$var reg 1 O" ack $end
$var reg 8 P" data [7:0] $end
$var integer 32 Q" i [31:0] $end
$upscope $end
$upscope $end
$enddefinitions $end
$comment Show the parameter values. $end
$dumpall
b1000000000000 I"
b1000 H"
b1100 G"
b111 -"
b1001 ,"
b1000 +"
b100 *"
b101 )"
b10 ("
b110 '"
b11 &"
b1 %"
b0 $"
b1010000 #"
b1000000000000 ""
b111 e
b101 d
b110 c
b11 b
b10 a
b1 `
b100 _
b100000000 ^
b100 ]
b0 \
b1000 [
b1000000000000 Z
b1010000 D
b1010000 $
b1010 #
$end
#0
$dumpvars
bx Q"
bx P"
xO"
bx N"
xM"
bx L"
bx K"
bx J"
0F"
b0 E"
b0 D"
b0 C"
b0 B"
b0 A"
b0 @"
b0 ?"
b111 >"
1="
1<"
0;"
1:"
b111 9"
18"
17"
b0 6"
05"
b0 4"
b0 3"
b0 2"
b0 1"
00"
b111 /"
0."
0!"
0~
0}
0|
bx {
b0 z
b10000 y
b0 x
b0 w
b0 v
b0 u
b0 t
b0 s
0r
0q
b0 p
b0 o
0n
b0 m
b0 l
b0 k
b0 j
0i
b0 h
b0 g
b0 f
b0 Y
bx X
0W
0V
0U
0T
0S
0R
0Q
0P
0O
0N
0M
0L
0K
0J
0I
0H
0G
0F
0E
b0 C
0B
b0 A
0@
b0 ?
b0 >
0=
b0 <
0;
b0 :
09
b0 8
b0 7
06
b0 5
b0 4
bx 3
02
bx 1
bx 0
b0 /
bx .
bx -
0,
1+
1*
bx )
bx (
0'
0&
x%
z"
1!
$end
#5000
b10000 y
1&
#10000
0&
#15000
b10000 y
1&
#20000
0&
#25000
b10000 y
1&
#30000
0&
#35000
b10000 y
1&
#40000
0&
#45000
b10000 y
1&
#50000
0&
#55000
b10000 y
1&
#60000
0&
#65000
b10000 y
1&
#70000
0&
#75000
b10000 y
1&
#80000
0&
#85000
b10000 y
1&
#90000
0&
#95000
b10000 y
1&
#100000
0&
#105000
b10000 y
1&
#110000
0&
#115000
b10000 y
1&
#120000
0&
#125000
b10000 y
1&
#130000
0&
#135000
b10000 y
1&
#140000
0&
#145000
b10000 y
1&
#150000
0&
#155000
b10000 y
1&
#160000
0&
#165000
b10000 y
1&
#170000
0&
#175000
b10000 y
1&
#180000
0&
#185000
b10000 y
1&
#190000
0&
#195000
b10000 y
1&
#200000
0&
#205000
b10000 y
1&
#210000
0&
#215000
b10000 y
1&
#220000
0&
#225000
b10000 y
1&
#230000
0&
#235000
b10000 y
1&
#240000
0&
#245000
b10000 y
1&
#250000
0&
#255000
b10000 y
1&
#260000
0&
#265000
b10000 y
1&
#270000
0&
#275000
b10000 y
1&
#280000
0&
#285000
b10000 y
1&
#290000
0&
#295000
b10000 y
1&
#300000
0&
#305000
b10000 y
1&
#310000
0&
#315000
b10000 y
1&
#320000
0&
#325000
b10000 y
1&
#330000
0&
#335000
b10000 y
1&
#340000
0&
#345000
b10000 y
1&
#350000
0&
#355000
b10000 y
1&
#360000
0&
#365000
b10000 y
1&
#370000
0&
#375000
b10000 y
1&
#380000
0&
#385000
b10000 y
1&
#390000
0&
#395000
b10000 y
1&
#400000
0&
#405000
b10000 y
1&
#410000
0&
#415000
b10000 y
1&
#420000
0&
#425000
b10000 y
1&
#430000
0&
#435000
b10000 y
1&
#440000
0&
#445000
b10000 y
1&
#450000
0&
#455000
b10000 y
1&
#460000
0&
#465000
b10000 y
1&
#470000
0&
#475000
b10000 y
1&
#480000
0&
#485000
b10000 y
1&
#490000
0&
#495000
b10000 y
1&
#500000
0&
#505000
b10000 y
1&
#510000
0&
#515000
b10000 y
1&
#520000
0&
#525000
b10000 y
1&
#530000
0&
#535000
b10000 y
1&
#540000
0&
#545000
b10000 y
1&
#550000
0&
#555000
b10000 y
1&
#560000
0&
#565000
b10000 y
1&
#570000
0&
#575000
b10000 y
1&
#580000
0&
#585000
b10000 y
1&
#590000
0&
#595000
b10000 y
1&
#600000
0&
#605000
b10000 y
1&
#610000
0&
#615000
b10000 y
1&
#620000
0&
#625000
b10000 y
1&
#630000
0&
#635000
b10000 y
1&
#640000
0&
#645000
b10000 y
1&
#650000
0&
#655000
b10000 y
1&
#660000
0&
#665000
b10000 y
1&
#670000
0&
#675000
b10000 y
1&
#680000
0&
#685000
b10000 y
1&
#690000
0&
#695000
b10000 y
1&
#700000
0&
#705000
b10000 y
1&
#710000
0&
#715000
b10000 y
1&
#720000
0&
#725000
b10000 y
1&
#730000
0&
#735000
b10000 y
1&
#740000
0&
#745000
b10000 y
1&
#750000
0&
#755000
b10000 y
1&
#760000
0&
#765000
b10000 y
1&
#770000
0&
#775000
b10000 y
1&
#780000
0&
#785000
b10000 y
1&
#790000
0&
#795000
b10000 y
1&
#800000
0&
#805000
b10000 y
1&
#810000
0&
#815000
b10000 y
1&
#820000
0&
#825000
b10000 y
1&
#830000
0&
#835000
b10000 y
1&
#840000
0&
#845000
b10000 y
1&
#850000
0&
#855000
b10000 y
1&
#860000
0&
#865000
b10000 y
1&
#870000
0&
#875000
b10000 y
1&
#880000
0&
#885000
b10000 y
1&
#890000
0&
#895000
b10000 y
1&
#900000
0&
#905000
b10000 y
1&
#910000
0&
#915000
b10000 y
1&
#920000
0&
#925000
b10000 y
1&
#930000
0&
#935000
b10000 y
1&
#940000
0&
#945000
b10000 y
1&
#950000
0&
#955000
b10000 y
1&
#960000
0&
#965000
b10000 y
1&
#970000
0&
#975000
b10000 y
1&
#980000
0&
#985000
b10000 y
1&
#990000
0&
#995000
b10000 y
1&
#1000000
0&
1'
#1005000
b11z >"
1&
#1010000
0&
#1015000
b1zz >"
1&
#1020000
0&
#1025000
bz >"
1&
